module atomic

go 1.17

require (
	github.com/alexedwards/argon2id v0.0.0-20210511081203-7d35d68092b8
	github.com/gin-contrib/cors v1.3.1
	github.com/gin-gonic/gin v1.7.4
	github.com/gocolly/colly v1.2.0
	github.com/golang-jwt/jwt v3.2.2+incompatible
	github.com/jinzhu/gorm v1.9.16
	github.com/sendgrid/sendgrid-go v3.10.3+incompatible
	github.com/sirupsen/logrus v1.8.1
	github.com/spf13/viper v1.9.0
	gorm.io/driver/postgres v1.2.2
	gorm.io/gorm v1.22.3
)

require (
	github.com/PuerkitoBio/goquery v1.5.1 // indirect
	github.com/andybalholm/cascadia v1.1.0 // indirect
	github.com/antchfx/htmlquery v1.2.4 // indirect
	github.com/antchfx/xmlquery v1.3.8 // indirect
	github.com/antchfx/xpath v1.2.0 // indirect
	github.com/fsnotify/fsnotify v1.5.1 // indirect
	github.com/gin-contrib/sse v0.1.0 // indirect
	github.com/go-playground/locales v0.13.0 // indirect
	github.com/go-playground/universal-translator v0.17.0 // indirect
	github.com/go-playground/validator/v10 v10.4.1 // indirect
	github.com/gobwas/glob v0.2.3 // indirect
	github.com/golang/groupcache v0.0.0-20200121045136-8c9f03a8e57e // indirect
	github.com/golang/protobuf v1.5.2 // indirect
	github.com/hashicorp/hcl v1.0.0 // indirect
	github.com/jackc/chunkreader/v2 v2.0.1 // indirect
	github.com/jackc/pgconn v1.10.0 // indirect
	github.com/jackc/pgio v1.0.0 // indirect
	github.com/jackc/pgpassfile v1.0.0 // indirect
	github.com/jackc/pgproto3/v2 v2.1.1 // indirect
	github.com/jackc/pgservicefile v0.0.0-20200714003250-2b9c44734f2b // indirect
	github.com/jackc/pgtype v1.8.1 // indirect
	github.com/jackc/pgx/v4 v4.13.0 // indirect
	github.com/jinzhu/inflection v1.0.0 // indirect
	github.com/jinzhu/now v1.1.2 // indirect
	github.com/json-iterator/go v1.1.11 // indirect
	github.com/kennygrant/sanitize v1.2.4 // indirect
	github.com/leodido/go-urn v1.2.0 // indirect
	github.com/lib/pq v1.10.4 // indirect
	github.com/magiconair/properties v1.8.5 // indirect
	github.com/mattn/go-isatty v0.0.12 // indirect
	github.com/mitchellh/mapstructure v1.4.2 // indirect
	github.com/modern-go/concurrent v0.0.0-20180228061459-e0a39a4cb421 // indirect
	github.com/modern-go/reflect2 v1.0.1 // indirect
	github.com/pelletier/go-toml v1.9.4 // indirect
	github.com/saintfish/chardet v0.0.0-20120816061221-3af4cd4741ca // indirect
	github.com/sendgrid/rest v2.6.5+incompatible // indirect
	github.com/spf13/afero v1.6.0 // indirect
	github.com/spf13/cast v1.4.1 // indirect
	github.com/spf13/jwalterweatherman v1.1.0 // indirect
	github.com/spf13/pflag v1.0.5 // indirect
	github.com/subosito/gotenv v1.2.0 // indirect
	github.com/temoto/robotstxt v1.1.2 // indirect
	github.com/ugorji/go/codec v1.1.7 // indirect
	golang.org/x/crypto v0.0.0-20210921155107-089bfa567519 // indirect
	golang.org/x/net v0.0.0-20210503060351-7fd8e65b6420 // indirect
	golang.org/x/sys v0.0.0-20210823070655-63515b42dcdf // indirect
	golang.org/x/text v0.3.7 // indirect
	google.golang.org/appengine v1.6.7 // indirect
	google.golang.org/protobuf v1.27.1 // indirect
	gopkg.in/ini.v1 v1.63.2 // indirect
	gopkg.in/yaml.v2 v2.4.0 // indirect
)
